group,experiment,result
4,1,0.3183928834254669
4,2,0.23770766357978682
4,3,-0.24318875004633456
4,4,1.470904255273313
4,5,-0.7150679936955553
4,6,1.245362185166687
4,7,-0.4750624724947136
4,8,-0.47481563082694644
4,9,1.429617624922367
4,10,2.674756386163909
4,11,0.16338832771803397
4,12,-2.5164928458013462
4,13,1.5499875061045822
4,14,0.592132085385851
4,15,-2.0624059950501588
