group,experiment,result
5,1,-0.21813963487346563
5,2,0.1496813352087353
5,3,-1.0738323911660652
5,4,0.2191914604380695
5,5,0.593597793130568
5,6,0.0451919270722947
5,7,-0.483635597973891
5,8,0.5727214073133867
5,9,-0.08012607760668848
5,10,-0.1176125594530803
5,11,1.4371255367359723
5,12,0.04038507982859155
5,13,0.24914684759775532
5,14,0.0998147215408613
5,15,-0.703849293469905
