group,experiment,result
3,1,0.4627462559383675
3,2,1.0814064748181422
3,3,-0.15038012976415865
3,4,1.122008173597063
3,5,0.5041265702215909
3,6,-0.17601624480219327
3,7,-0.7901207931043575
3,8,0.6667654725759147
3,9,0.6281019479018561
3,10,-1.2000911826381553
3,11,-0.25856545090943667
3,12,-0.05217056227783443
