group,experiment,result
11,1,-0.21583475158303136
11,2,0.07250818501905383
11,3,-1.4934241868526668
11,4,-1.2335867677750003
11,5,1.3177446114914924
11,6,-1.2931373260100683
11,7,-0.7073084832826493
11,8,-0.9737145386640126
11,9,0.8516318038065901
11,10,-1.7797552825403233
11,11,0.10971152150662901
11,12,-2.080745648320476
11,13,0.8177744308059927
11,14,1.3482996273947652
11,15,1.348689201499029
11,16,0.3835347779142407
11,17,-0.6135470185312132
11,18,2.41691635009314
11,19,-0.0883153831686717
11,20,-0.09387487005462067
